{
    "$schema": "http://json-schema.org/draft-04/schema#",
    "description": "Ranking list",
    "type": "array",
    "additionalProperties": false,
    "items": {
        "type": "object",
        "additionalProperties": true,
        "allOf": [{
                "$ref": "user_resumed.json#"
            }],
        "properties": {
            "score": {
                "type": "integer"
            },
            "position": {
                "type": "integer"
            }
        },
        "required": [
            "position",
            "score"
        ]
    }

}
