{
   "$schema": "http://json-schema.org/draft-04/schema#",
    "description": "Send question for related match",
    "type": "object",
    "properties": {
        "user_id": {
            "description": "Id of the user",
            "type": "integer",
            "minimum": 0,
            "exclusiveMinimum": true
        },
        "answer_id": {
            "description": "Id of the answer",
            "type": "integer",
            "minimum": 0,
            "exclusiveMinimum": true
        },
        "powerup": {
            "type": "string",
            "description": "Power up used"
        }
    },
    "required": [
        "user_id",
        "match_id",
        "question_id",
        "answer_id"
    ]
    
}
